End of The Month Report
…
BRAC Jobs July_2018 by Industry Type Having Job Openings

## # A tibble: 27 x 3
##    IndustryName                                              Count Percent
##    <fct>                                                     <int>   <dbl>
##  1 Health Care                                                2728 0.847  
##  2 Education                                                   229 0.0710 
##  3 Manufacturing: Petrochemical;  Maritime;  Oil and Gas Ex~    47 0.0150 
##  4 Engineering, Architecture and Design;  Manufacturing: No~    44 0.0140 
##  5 Engineering, Architecture and Design;  Manufacturing: Pe~    24 0.00700
##  6 Government and Military;  Manufacturing: Non-Petrochemic~    23 0.00700
##  7 Government and Military                                      18 0.00600
##  8 Engineering, Architecture and Design;  Oil and Gas Extra~    15 0.00500
##  9 Broadcasting, Telecommunications, Film and Print Publish~    14 0.00400
## 10 Software Publishing and Development                          11 0.00300
## # ... with 17 more rows
…
## # A tibble: 6 x 3
##   JobType          Count Percent
##   <fct>            <int>   <dbl>
## 1 Full-Time         2067 0.642  
## 2 " "                652 0.202  
## 3 Part-Time          465 0.144  
## 4 Contract            28 0.00900
## 5 Internship/Co-op     6 0.00200
## 6 Temporary            4 0.00100

LJC Job Seeker For The Month Overview

July_2018 Adds by City

## # A tibble: 146 x 3
##    `July_2018.added$City`     n percent
##    <fct>                  <int>   <dbl>
##  1 Shreveport               172  0.289 
##  2 Bossier City              48  0.0807
##  3 Baton Rouge               29  0.0487
##  4 Lafayette                 21  0.0353
##  5 New Orleans               20  0.0336
##  6 Haughton                  13  0.0218
##  7 Minden                    13  0.0218
##  8 Houma                     11  0.0185
##  9 Slidell                   11  0.0185
## 10 Covington                 10  0.0168
## # ... with 136 more rows
…
Employer Mismatch Feedback

## # A tibble: 32 x 3
##    Reason                                                          n  mean
##    <fct>                                                       <int> <dbl>
##  1 Preferred location (region) is incorrect                      172  34.1
##  2 Experience level is incorrect                                 163  33.6
##  3 "Other.Doesn't meet qualifications. "                         133  38.2
##  4 "Other.Not a general dentist. "                                79  25.5
##  5 Level of education is incorrect                                22  44.2
##  6 Other.                                                         22  30.2
##  7 Level of education is incorrect, Experience level is incor~    21  42.7
##  8 Level of education is incorrect, Experience level is incor~    12  37.2
##  9 Preferred location (region) is incorrect, Experience level~     9  29.8
## 10 Level of education is incorrect, Experience level is incor~     6  43.8
## # ... with 22 more rows
…
